{
    "featureSet": {
        "code": "SPE",
        "description": "SPECIAL ARRANGEMENT",
        "selectionCriteria": "Must select only one item",
        "isRequired": true,
        "isMultiSelect": false,
        "previousSetAvailable": true,
        "nextSetAvailable": false,
        "badModel": false,
        "selectedItem": null,
        "features": [
            {
                "selected": false,
                "isRequired": false,
                "selectionText": "",
                "featureCode": "INDPKG",
                "quantity": 1,
                "configuredQuantity": 0,
                "assemblyIndicator": "I",
                "shipLessIndicator": " ",
                "sourceBuilding": "82Z",
                "description": "INDUSTRIAL PACKAGE",
                "referenceNumber": "5051506",
                "listPrice": 9830,
                "isNet": false,
                "extendedDescription": "FOR USE WITH LANE 3 ONLY<br/>Provides machine features required in waste tranfer stations,<br/>recycling stations, green waste and scrap applications.<br/>INCLUDES:<br/> -Reinforced platform<br/> -Carbon cab air filter<br/> -Guards: hitch, bottom cab (skirt), front frame, crankcase<br/> -Lift cylinder baffles<br/> -Heavy duty ladder<br/>RECOMMENDED:<br/>434-4487 TIRES, 23.5X25 FLXPRT OFF ROAD or<br/>434-4488 434-4488 TIRES, 23.5X25 FLXPRT SMOOTH and<br/>505-1521 FILTRATION AR, STEEL or<br/>505-1522 FILTRATION AR, STEEL CLNR AUX and<br/>493-9616 WINDOWS, FLAT, RUBBER MOUNTED or<br/>493-9617 WINDOWS, FLAT, RUBEER MOUNTED GRD and<br/>485-4387 GUARDS, LIGHT",
                "shipWeight": 0,
                "extendedListPrice": 9830,
                "featureSet": null
            },
            {
                "selected": false,
                "isRequired": false,
                "selectionText": "",
                "featureCode": "LOGPKG1",
                "quantity": 1,
                "configuredQuantity": 0,
                "assemblyIndicator": "I",
                "shipLessIndicator": " ",
                "sourceBuilding": "82Z",
                "description": "LOGGER PACKAGE",
                "referenceNumber": "5050518",
                "listPrice": 0,
                "isNet": false,
                "extendedDescription": "FOR USE WITH LANE 3 ONLY<br/>Provides machine features required in forestry applications.<br/>INCLUDES:<br/> -Platform<br/> -Cab air filter",
                "shipWeight": 0,
                "extendedListPrice": 0,
                "featureSet": null
            },
            {
                "selected": false,
                "isRequired": false,
                "selectionText": "",
                "featureCode": "CORROSP",
                "quantity": 1,
                "configuredQuantity": 0,
                "assemblyIndicator": "I",
                "shipLessIndicator": " ",
                "sourceBuilding": "82Z",
                "description": "CORROSION RESISTANT PACKAGE",
                "referenceNumber": "4771648",
                "listPrice": 6180,
                "isNet": false,
                "extendedDescription": "FOR USE WITH LANE 3 ONLY<br/>Minimizes the harmful effect in highly corrosive environments<br/>applications such as fertilizer handling, salt and its derivatives.<br/><br/>INCLUDES:<br/>-Heavy duty alternator;<br/>-Heavy duty switch disconnect;<br/>-Silicon protection is applied on all the electric terminals, exposed<br/>connectors are treated with tube heat shrinkable;<br/>-Anticorrosion vapor capsules in closed compartments;<br/><br/>REQUIRES:<br/>365-0120 PRECLEANER, TURBINE<br/>477-1660 WINDOW AR, CAB - CORROSION, OR<br/>477-1659 WINDOW AR, RM - CORROSION<br/><br/>RECOMMENDED:<br/>493-2588 COOLING GP (6FPI) - CORROSION, OR<br/>493-2588 COOLING GP (6FPI) - CORROSION, OR<br/>493-2590 COOLING GP (9FPI) - CORROSION<br/>- Cores protected<br/>- Grease points on the radiator hinges<br/>477-1667 HOOD AR - CORROSION<br/>521-9198 PAINTING GROUP, CORROSION (NACD), OR<br/>522-5231 PAINTING GROUP, CORROSION (EU)<br/>- Differentiated Painting Process<br/>- Extra Varnish protection is applied on the engine compartment,<br/>chassis internal<br/>506-0545 PROTECTION PACKAGE, LINES<br/>Hose couplings treated with tube heat shrinkable and sealant silicone.<br/>503-6413 FAN, VPF, ISO, OR<br/>503-6414 FAN, VPF, ANSI<br/>495-7494 AUTOLUBE - for 950M, OR<br/>495-7496 AUTOLUBE - for 962M<br/>505-1520 FILTRATION, STD, PRECLEANER",
                "shipWeight": 0,
                "extendedListPrice": 6180,
                "featureSet": null
            },
            {
                "selected": false,
                "isRequired": false,
                "selectionText": "",
                "featureCode": "SPBAS2",
                "quantity": 1,
                "configuredQuantity": 0,
                "assemblyIndicator": "I",
                "shipLessIndicator": " ",
                "sourceBuilding": "82Z",
                "description": "STANDARD PACKAGE",
                "referenceNumber": "5120858",
                "listPrice": 222,
                "isNet": false,
                "extendedDescription": "Provides machine features required in standard applications.<br/>INCLUDES:<br/> -Platform<br/> -Cab air filter<br/> -CPM Payload Ready & Autodig Ready<br/>   Includes hardware and 250 hour CPM demo mode only. Demo mode is<br/>   dealer activated. System must be calibrated prior to use.<br/>   Requires purchase of software for permanent feature activation.<br/>   See the Optional Technology section for software options.",
                "shipWeight": 0,
                "extendedListPrice": 222,
                "featureSet": null
            }
        ]
    },
    "selections": [
        {
            "selected": false,
            "isRequired": false,
            "selectionText": "",
            "featureCode": "950MHRC",
            "quantity": 1,
            "configuredQuantity": 0,
            "assemblyIndicator": "I",
            "shipLessIndicator": " ",
            "sourceBuilding": "82Z",
            "description": "950M WHEEL LOADER",
            "referenceNumber": "4642600",
            "listPrice": 294150,
            "isNet": false,
            "extendedDescription": null,
            "shipWeight": 0,
            "extendedListPrice": 294150,
            "featureSet": "CFG"
        },
        {
            "selected": true,
            "isRequired": false,
            "selectionText": "Frc",
            "featureCode": "LANE3",
            "quantity": 1,
            "configuredQuantity": 0,
            "assemblyIndicator": "I",
            "shipLessIndicator": " ",
           "sourceBuilding": "82Z",
            "description": "LANE 3 ORDER",
            "referenceNumber": "0P9003",
            "listPrice": 0,
            "isNet": true,
            "extendedDescription": null,
            "shipWeight": 0,
            "extendedListPrice": 0,
            "featureSet": "LAN"
        },
        {
            "selected": true,
            "isRequired": false,
            "selectionText": "Frc",
            "featureCode": "REG100",
            "quantity": 1,
            "configuredQuantity": 0,
            "assemblyIndicator": "I",
            "shipLessIndicator": " ",
            "sourceBuilding": "82Z",
            "description": "REGIONAL PACKAGE, AM-N",
            "referenceNumber": "5063495",
            "listPrice": 0,
            "isNet": true,
            "extendedDescription": null,
            "shipWeight": 0,
            "extendedListPrice": 0,
            "featureSet": "REG"
        }
    ]
}