{
    "results": [
    {
        "code": "259D",
        "name": "259D",
        "url": "/Products/equipment/COMPACT-TRACK-LOADERS/259D/p/259D",
        "description": null,
        "purchasable": false,
        "stock": null,
        "futureStocks": null,
        "availableForPickup": null,
        "averageRating": null,
        "numberOfReviews": null,
        "summary": null,
        "manufacturer": null,
        "variantType": "BaseVariantProduct",
        "price": null,
        "baseProduct": null,
        "images": null,
        "categories": null,
        "reviews": null,
        "classifications": null,
        "potentialPromotions": null,
        "variantOptions": null,
        "baseOptions": [],
        "volumePricesFlag": null,
        "volumePrices": null,
        "productReferences": null,
        "variantMatrix": null,
        "priceRange": null,
        "firstCategoryNameList": null,
        "multidimensional": null,
        "configurable": false,
        "soldIndividually": false,
        "lowestBundlePrice": null,
        "bundleTemplates": null,
        "disabled": false,
        "keywords": null,
        "isWatching": null,
        "featureNetPower": null,
        "featureEngineModel": null,
        "featureOperatingWeight": null,
        "primaryImageUrl": null,
        "availableInWarehouse": null,
        "dealerWarehouse": null,
        "pdcWarehouse": null,
        "currentStockLevel": null,
        "minimumStockLevel": null,
        "maximumStockLevel": null,
        "recommendedStockLevel": null,
        "inventoryStatus": null,
        "favorite": null,
        "salesModelId": null,
        "primaryOfferingId": null,
        "category": null,
        "salesModelName": null,
        "primaryOfferingName": null,
        "categoryName": null
    },
    {
        "code": "226D",
        "name": "226D",
        "url": "/Products/equipment/SKID-STEER-LOADERS/226D/p/226D",
        "description": null,
        "purchasable": false,
        "stock": null,
        "futureStocks": null,
        "availableForPickup": null,
        "averageRating": null,
        "numberOfReviews": null,
        "summary": null,
        "manufacturer": null,
        "variantType": "BaseVariantProduct",
        "price": null,
        "baseProduct": null,
        "images": null,
        "categories": null,
        "reviews": null,
        "classifications": null,
        "potentialPromotions": null,
        "variantOptions": null,
        "baseOptions": [],
        "volumePricesFlag": null,
        "volumePrices": null,
        "productReferences": null,
        "variantMatrix": null,
        "priceRange": null,
        "firstCategoryNameList": null,
        "multidimensional": null,
        "configurable": false,
        "soldIndividually": false,
        "lowestBundlePrice": null,
        "bundleTemplates": null,
        "disabled": false,
        "keywords": null,
        "isWatching": null,
        "featureNetPower": null,
        "featureEngineModel": null,
        "featureOperatingWeight": null,
        "primaryImageUrl": null,
        "availableInWarehouse": null,
        "dealerWarehouse": null,
        "pdcWarehouse": null,
        "currentStockLevel": null,
        "minimumStockLevel": null,
        "maximumStockLevel": null,
        "recommendedStockLevel": null,
        "inventoryStatus": null,
        "favorite": null,
        "salesModelId": null,
        "primaryOfferingId": null,
        "category": null,
        "salesModelName": null,
        "primaryOfferingName": null,
        "categoryName": null
    }],
    "pagination":
    {
        "pageSize": 0,
        "currentPage": 0,
        "sort": null,
        "numberOfPages": 0,
        "totalNumberOfResults": 2
    },
    "warehouseMap": null
}