<svg xmlns="http://www.w3.org/2000/svg" width="12" height="24" viewBox="0 0 12 24">
    <path fill="#000105" fill-rule="evenodd" d="M1.152.196A.653.653 0 0 0 .689 0a.66.66 0 0 0-.51.249.812.812 0 0 0 .047 1.07L10.435 11.5 1.18 22.734a.812.812 0 0 0 .048 1.07.646.646 0 0 0 .973-.053l9.622-11.68a.808.808 0 0 0 .163-.652.794.794 0 0 0-.22-.636L1.152.196z"/>
</svg>
