<svg xmlns="http://www.w3.org/2000/svg" width="18" height="18" viewBox="0 0 18 18">
    <g fill="none" fill-rule="evenodd">
        <path stroke="#D0021B" stroke-width="1.2" d="M9 16.6c-4.191 0-7.6-3.409-7.6-7.6S4.809 1.4 9 1.4s7.6 3.409 7.6 7.6-3.409 7.6-7.6 7.6z"/>
        <path fill="#D0021B" d="M9.16 14.08a.72.72 0 1 0 0-1.441.72.72 0 0 0 0 1.442M9.56 10.267V4.373c0-.381-.188-.693-.42-.693-.232 0-.42.312-.42.693v5.894c0 .381.188.693.42.693.232 0 .42-.312.42-.693z"/>
    </g>
</svg>
